{
    "cmake.configureOnOpen": true,
    "workbench.colorTheme": "Gruvbox Dark Hard",
    "workbench.activityBar.location": "hidden",
    "workbench.editor.showTabs": "single",
    "editor.minimap.enabled": false,
    "workbench.iconTheme": "material-icon-theme",
    "terminal.integrated.tabs.enabled": false,
    "window.menuBarVisibility": "toggle",
    "editor.mouseWheelZoom": true
}