{
    "cmake.configureOnOpen": true,
    "workbench.colorTheme": "Tomorrow Night Blue",
    "workbench.activityBar.location": "hidden",
    "workbench.editor.showTabs": "single",
    "editor.minimap.enabled": false,
    "workbench.iconTheme": "material-icon-theme"
}