00:00:00.375026 VirtualBox GUI VM Selector Window 7.0.12 r159484 linux.amd64 (Jan 14 2024 06:46:06) release log
00:00:00.375028 Log opened 2024-02-18T20:27:52.481330000Z
00:00:00.375029 Build Type: release
00:00:00.375037 OS Product: Linux
00:00:00.375038 OS Release: 6.6.16_1
00:00:00.375040 OS Version: #1 SMP PREEMPT_DYNAMIC Wed Feb  7 19:24:35 UTC 2024
00:00:00.375084 DMI Product Name: Aspire A315-23
00:00:00.375100 DMI Product Version: V1.19
00:00:00.375113 Firmware type: UEFI
00:00:00.375343 Secure Boot: Disabled
00:00:00.375414 Host RAM: 17924MB (17.5GB) total, 16328MB (15.9GB) available
00:00:00.375420 Executable: /usr/lib/virtualbox/VirtualBox
00:00:00.375421 Process ID: 14876
00:00:00.375421 Package type: LINUX_64BITS_GENERIC (OSE)
00:00:00.375483 Qt version: 5.15.11
00:00:00.376465 GUI: UIMediumEnumerator: Initial medium-enumeration finished!
00:00:00.380922 GUI: UIMediumEnumerator: Medium-enumeration started...
00:00:00.380955 GUI: UIMediumEnumerator: Medium-enumeration finished!
00:00:01.087645 GUI: UIDesktopWidgetWatchdog::sltHandleHostScreenAvailableGeometryCalculated: Screen 0 work area is actually resized to: 1054x17 x 860x1057
00:02:17.943659 GUI: UIMediumEnumerator: Medium with key={{7c2a02da-83f2-438b-a997-07d15dbb2eac}} created
00:02:18.470567 GUI: UIMediumEnumerator: Medium-enumeration finished!
00:02:26.098201 ERROR [COM]: aRC=NS_ERROR_UNEXPECTED (0x8000ffff) aIID={c0447716-ff5a-4795-b57a-ecd5fffa18a4} aComponent={SessionWrap} aText={The session is not locked (session state: Unlocked)}, preserve=false aResultDetail=0
00:05:04.383126 GUI: UICommon: Handling aboutToQuit request..
00:05:05.240138 GUI: UICommon: aboutToQuit request handled!
