00:00:00.342634 VirtualBox GUI VM Selector Window 7.0.12 r159484 linux.amd64 (Jan 14 2024 06:46:06) release log
00:00:00.342637 Log opened 2024-02-19T22:19:50.211951000Z
00:00:00.342638 Build Type: release
00:00:00.342646 OS Product: Linux
00:00:00.342648 OS Release: 6.6.16_1
00:00:00.342650 OS Version: #1 SMP PREEMPT_DYNAMIC Wed Feb  7 19:24:35 UTC 2024
00:00:00.342704 DMI Product Name: Aspire A315-23
00:00:00.342722 DMI Product Version: V1.19
00:00:00.342736 Firmware type: UEFI
00:00:00.343000 Secure Boot: Disabled
00:00:00.343116 Host RAM: 17924MB (17.5GB) total, 13712MB (13.3GB) available
00:00:00.343124 Executable: /usr/lib/virtualbox/VirtualBox
00:00:00.343125 Process ID: 23158
00:00:00.343125 Package type: LINUX_64BITS_GENERIC (OSE)
00:00:00.343206 Qt version: 5.15.11
00:00:00.344203 GUI: UIMediumEnumerator: Initial medium-enumeration finished!
00:00:00.353590 GUI: UIMediumEnumerator: Medium-enumeration started...
00:00:01.015227 GUI: UIDesktopWidgetWatchdog::sltHandleHostScreenAvailableGeometryCalculated: Screen 0 work area is actually resized to: 1054x17 x 860x1057
00:00:01.029289 GUI: UIMediumEnumerator: Medium-enumeration finished!
00:01:44.680507 GUI: UIMediumEnumerator: Medium with key={{ed7b9fc1-c758-45f4-b462-ebc9c9af935a}} created
00:01:48.263681 GUI: UIMediumEnumerator: Medium-enumeration finished!
00:01:54.268758 GUI: UIMediumEnumerator: Medium-enumeration finished!
00:01:55.276401 GUI: UIMediumEnumerator: Medium-enumeration finished!
00:01:58.647429 GUI: UIMediumEnumerator: Medium-enumeration finished!
00:02:37.731811 GUI: UIMediumEnumerator: Medium-enumeration finished!
00:02:43.467296 GUI: UIMediumEnumerator: Medium-enumeration finished!
00:03:27.585572 GUI: UIMediumEnumerator: Medium-enumeration finished!
00:04:47.291452 GUI: UIMediumEnumerator: Medium-enumeration finished!
00:06:12.606314 GUI: UIMediumEnumerator: Medium-enumeration finished!
00:06:20.291589 GUI: UIMediumEnumerator: Medium-enumeration finished!
00:07:36.385063 GUI: UIMediumEnumerator: Medium-enumeration finished!
00:08:00.994330 ERROR [COM]: aRC=NS_ERROR_UNEXPECTED (0x8000ffff) aIID={c0447716-ff5a-4795-b57a-ecd5fffa18a4} aComponent={SessionWrap} aText={The session is not locked (session state: Unlocked)}, preserve=false aResultDetail=0
00:08:12.201325 GUI: UIMediumEnumerator: Medium-enumeration finished!
00:08:14.074938 GUI: UIMediumEnumerator: Medium-enumeration finished!
00:08:37.071732 ERROR [COM]: aRC=NS_ERROR_UNEXPECTED (0x8000ffff) aIID={c0447716-ff5a-4795-b57a-ecd5fffa18a4} aComponent={SessionWrap} aText={The session is not locked (session state: Unlocked)}, preserve=false aResultDetail=0
