00:00:12.770903 VirtualBox GUI VM Selector Window 7.0.12 r159484 linux.amd64 (Jan 14 2024 06:46:06) release log
00:00:12.770906 Log opened 2024-02-19T21:38:45.584371000Z
00:00:12.770907 Build Type: release
00:00:12.770915 OS Product: Linux
00:00:12.770917 OS Release: 6.6.16_1
00:00:12.770919 OS Version: #1 SMP PREEMPT_DYNAMIC Wed Feb  7 19:24:35 UTC 2024
00:00:12.770964 DMI Product Name: Aspire A315-23
00:00:12.770980 DMI Product Version: V1.19
00:00:12.770992 Firmware type: UEFI
00:00:12.771210 Secure Boot: Disabled
00:00:12.771285 Host RAM: 17924MB (17.5GB) total, 13827MB (13.5GB) available
00:00:12.771292 Executable: /usr/lib/virtualbox/VirtualBox
00:00:12.771292 Process ID: 6296
00:00:12.771293 Package type: LINUX_64BITS_GENERIC (OSE)
00:00:12.771353 Qt version: 5.15.11
00:00:12.862411 GUI: UIMediumEnumerator: Initial medium-enumeration finished!
00:00:13.303799 GUI: UIMediumEnumerator: Medium-enumeration started...
00:00:22.071782 GUI: UIInvisibleWindow::sltFallback: Move event haven't came. Screen: 0, work area: 0x0 x 1920x1080
00:00:22.071818 GUI: UIDesktopWidgetWatchdog::sltHandleHostScreenAvailableGeometryCalculated: Screen 0 work area is actually resized to: 0x0 x 1920x1080
00:00:22.401620 GUI: UIMediumEnumerator: Medium-enumeration finished!
00:00:32.670749 GUI: UIMediumEnumerator: Medium-enumeration finished!
00:01:06.129697 GUI: UIMediumEnumerator: Medium-enumeration finished!
00:02:49.728815 GUI: UIMediumEnumerator: Medium-enumeration finished!
00:02:55.720542 GUI: UIMediumEnumerator: Medium-enumeration finished!
00:02:56.299073 GUI: UIMediumEnumerator: Medium-enumeration finished!
00:03:06.340546 GUI: UICommon: Handling aboutToQuit request..
00:03:07.714696 GUI: UICommon: aboutToQuit request handled!
