00:00:01.001953 VirtualBox GUI VM Selector Window 7.0.12 r159484 linux.amd64 (Jan 14 2024 06:46:06) release log
00:00:01.001956 Log opened 2024-02-18T20:27:41.150766000Z
00:00:01.001957 Build Type: release
00:00:01.001966 OS Product: Linux
00:00:01.001967 OS Release: 6.6.16_1
00:00:01.001969 OS Version: #1 SMP PREEMPT_DYNAMIC Wed Feb  7 19:24:35 UTC 2024
00:00:01.002014 DMI Product Name: Aspire A315-23
00:00:01.002033 DMI Product Version: V1.19
00:00:01.002048 Firmware type: UEFI
00:00:01.002267 Secure Boot: Disabled
00:00:01.002341 Host RAM: 17924MB (17.5GB) total, 16330MB (15.9GB) available
00:00:01.002348 Executable: /usr/lib/virtualbox/VirtualBox
00:00:01.002349 Process ID: 14712
00:00:01.002350 Package type: LINUX_64BITS_GENERIC (OSE)
00:00:01.002417 Qt version: 5.15.11
00:00:01.003528 GUI: UIMediumEnumerator: Initial medium-enumeration finished!
00:00:01.053000 GUI: UIMediumEnumerator: Medium-enumeration started...
00:00:01.053042 GUI: UIMediumEnumerator: Medium-enumeration finished!
00:00:05.585516 GUI: UICommon: Handling aboutToQuit request..
00:00:06.551023 GUI: UICommon: aboutToQuit request handled!
