00:00:00.083164 main     VirtualBox XPCOM Server 7.0.12 r159484 linux.amd64 (Jan 14 2024 06:46:06) release log
00:00:00.083170 main     Log opened 2024-02-19T21:38:43.095961000Z
00:00:00.083171 main     Build Type: release
00:00:00.083178 main     OS Product: Linux
00:00:00.083179 main     OS Release: 6.6.16_1
00:00:00.083181 main     OS Version: #1 SMP PREEMPT_DYNAMIC Wed Feb  7 19:24:35 UTC 2024
00:00:00.083228 main     DMI Product Name: Aspire A315-23
00:00:00.083246 main     DMI Product Version: V1.19
00:00:00.083258 main     Firmware type: UEFI
00:00:00.083498 main     Secure Boot: Disabled
00:00:00.083565 main     Host RAM: 17924MB (17.5GB) total, 13831MB (13.5GB) available
00:00:00.083585 main     Executable: /usr/lib/virtualbox/VBoxSVC
00:00:00.083586 main     Process ID: 6448
00:00:00.083586 main     Package type: LINUX_64BITS_GENERIC (OSE)
00:00:00.085946 main     IPC socket path: /tmp/.vbox-muhammedalessa-ipc/ipcd
00:00:00.396671 nspr-2   VirtualBox: object creation starts
00:00:00.547247 nspr-2   Home directory: '/home/muhammedalessa/.config/VirtualBox'
00:00:00.562626 nspr-2   Loading settings file "/home/muhammedalessa/.config/VirtualBox/VirtualBox.xml" with version "1.12-linux"
00:00:00.836126 nspr-2   NetIfAdpCtlOut: VBoxNetAdpCtl: Error while retrieving link speed for wlp2s0: VBoxNetAdpCtl: ioctl failed: Operation not supported
00:00:00.837918 nspr-2   HostDnsMonitor: initializing
00:00:00.838155 nspr-2   NAT: resolv.conf: nameserver 192.168.0.1
00:00:00.838174 nspr-2   HostDnsMonitor: updating information
00:00:00.838190 nspr-2   HostDnsMonitor: old information
00:00:00.838194 nspr-2     no server entries
00:00:00.838197 nspr-2     no domain set
00:00:00.838199 nspr-2     no search string entries
00:00:00.838203 nspr-2   HostDnsMonitor: new information
00:00:00.838205 nspr-2     server 1: 192.168.0.1
00:00:00.838209 nspr-2     domain: TL-WA854RE
00:00:00.838212 nspr-2     no search string entries
00:00:00.961496 nspr-2   HostPowerServiceLinux: DBus connection Error (Failed to connect to socket /run/dbus/system_bus_socket: No such file or directory)
00:00:00.961605 nspr-2   Failed to open "/dev/vboxdrvu", errno=13, rc=VERR_VM_DRIVER_NOT_ACCESSIBLE
00:00:00.998433 nspr-2   VD: VDInit finished with VINF_SUCCESS
00:00:01.090519 nspr-2   ERROR [COM]: aRC=NS_ERROR_FAILURE (0x80004005) aIID={aac6c7cb-a371-4c58-ab51-0616896b2f2c} aComponent={SystemPropertiesWrap} aText={Cannot determine default Guest Additions ISO location. Most likely they are not available}, preserve=false aResultDetail=0
00:00:01.391551 nspr-2   Loading settings file "/home/muhammedalessa/Downloads/Dtos/Dtos.vbox" with version "1.19-linux"
00:00:01.652934 nspr-2   VirtualBox: object created
00:00:12.204384 nspr-4   WARNING [COM]: aRC=NS_ERROR_FAILURE (0x80004005) aIID={e54f6256-97a7-4947-8a78-10c013ddf4b8} aComponent={HostWrap} aText={VirtualBox is not currently allowed to access USB devices.  You can change this by adding your user to the 'vboxusers' group.  Please see the user manual for a more detailed explanation}, preserve=true aResultDetail=0
00:00:12.206201 nspr-5   WARNING [COM]: aRC=NS_ERROR_FAILURE (0x80004005) aIID={e54f6256-97a7-4947-8a78-10c013ddf4b8} aComponent={HostWrap} aText={VirtualBox is not currently allowed to access USB devices.  You can change this by adding your user to the 'vboxusers' group.  Please see the user manual for a more detailed explanation}, preserve=false aResultDetail=0
00:00:12.994059 nspr-3   Saving settings file "/home/muhammedalessa/.config/VirtualBox/VirtualBox.xml" with version "1.12-linux"
00:00:13.706851 nspr-3   Finished saving settings file "/home/muhammedalessa/.config/VirtualBox/VirtualBox.xml"
00:00:13.740758 nspr-4   ERROR [COM]: aRC=VBOX_E_INVALID_VM_STATE (0x80bb0002) aIID={300763af-5d6b-46e6-aa96-273eac15538a} aComponent={MachineWrap} aText={The machine is not mutable (state is PoweredOff)}, preserve=false aResultDetail=0
00:00:13.742500 nspr-5   Failed to open "/dev/vboxdrvu", errno=13, rc=VERR_VM_DRIVER_NOT_ACCESSIBLE
00:00:13.967475 nspr-5   WARNING [COM]: aRC=NS_ERROR_FAILURE (0x80004005) aIID={e54f6256-97a7-4947-8a78-10c013ddf4b8} aComponent={HostWrap} aText={VirtualBox is not currently allowed to access USB devices.  You can change this by adding your user to the 'vboxusers' group.  Please see the user manual for a more detailed explanation}, preserve=true aResultDetail=0
00:00:13.969510 nspr-5   WARNING [COM]: aRC=NS_ERROR_FAILURE (0x80004005) aIID={e54f6256-97a7-4947-8a78-10c013ddf4b8} aComponent={HostWrap} aText={VirtualBox is not currently allowed to access USB devices.  You can change this by adding your user to the 'vboxusers' group.  Please see the user manual for a more detailed explanation}, preserve=true aResultDetail=0
00:00:14.797969 nspr-4   Saving settings file "/home/muhammedalessa/.config/VirtualBox/VirtualBox.xml" with version "1.12-linux"
00:00:15.592773 nspr-4   Finished saving settings file "/home/muhammedalessa/.config/VirtualBox/VirtualBox.xml"
00:00:16.697333 nspr-5   Saving settings file "/home/muhammedalessa/.config/VirtualBox/VirtualBox.xml" with version "1.12-linux"
00:00:17.622138 nspr-5   Finished saving settings file "/home/muhammedalessa/.config/VirtualBox/VirtualBox.xml"
00:00:18.077105 nspr-4   Launched VM: 1275074752 pid: 6590 (0x19be) frontend: GUI/Qt name: Dtos
00:00:18.101905 nspr-2   ERROR [COM]: aRC=VBOX_E_INVALID_VM_STATE (0x80bb0002) aIID={300763af-5d6b-46e6-aa96-273eac15538a} aComponent={MachineWrap} aText={The machine is not mutable (state is PoweredOff)}, preserve=false aResultDetail=0
00:00:18.103378 nspr-2   Failed to open "/dev/vboxdrvu", errno=13, rc=VERR_VM_DRIVER_NOT_ACCESSIBLE
00:00:18.130630 nspr-5   WARNING [COM]: aRC=NS_ERROR_FAILURE (0x80004005) aIID={e54f6256-97a7-4947-8a78-10c013ddf4b8} aComponent={HostWrap} aText={VirtualBox is not currently allowed to access USB devices.  You can change this by adding your user to the 'vboxusers' group.  Please see the user manual for a more detailed explanation}, preserve=true aResultDetail=0
00:00:18.131932 nspr-5   WARNING [COM]: aRC=NS_ERROR_FAILURE (0x80004005) aIID={e54f6256-97a7-4947-8a78-10c013ddf4b8} aComponent={HostWrap} aText={VirtualBox is not currently allowed to access USB devices.  You can change this by adding your user to the 'vboxusers' group.  Please see the user manual for a more detailed explanation}, preserve=true aResultDetail=0
00:00:18.797814 nspr-2   Saving settings file "/home/muhammedalessa/.config/VirtualBox/VirtualBox.xml" with version "1.12-linux"
00:00:19.792861 nspr-2   Finished saving settings file "/home/muhammedalessa/.config/VirtualBox/VirtualBox.xml"
00:00:19.810381 nspr-5   ERROR [COM]: aRC=VBOX_E_INVALID_VM_STATE (0x80bb0002) aIID={300763af-5d6b-46e6-aa96-273eac15538a} aComponent={MachineWrap} aText={The machine is not mutable (state is PoweredOff)}, preserve=false aResultDetail=0
00:00:19.811968 nspr-6   Failed to open "/dev/vboxdrvu", errno=13, rc=VERR_VM_DRIVER_NOT_ACCESSIBLE
00:00:19.829169 nspr-6   WARNING [COM]: aRC=NS_ERROR_FAILURE (0x80004005) aIID={e54f6256-97a7-4947-8a78-10c013ddf4b8} aComponent={HostWrap} aText={VirtualBox is not currently allowed to access USB devices.  You can change this by adding your user to the 'vboxusers' group.  Please see the user manual for a more detailed explanation}, preserve=true aResultDetail=0
00:00:19.830557 nspr-5   WARNING [COM]: aRC=NS_ERROR_FAILURE (0x80004005) aIID={e54f6256-97a7-4947-8a78-10c013ddf4b8} aComponent={HostWrap} aText={VirtualBox is not currently allowed to access USB devices.  You can change this by adding your user to the 'vboxusers' group.  Please see the user manual for a more detailed explanation}, preserve=true aResultDetail=0
00:00:20.404071 nspr-8   WARNING [COM]: aRC=NS_ERROR_FAILURE (0x80004005) aIID={e54f6256-97a7-4947-8a78-10c013ddf4b8} aComponent={HostWrap} aText={VirtualBox is not currently allowed to access USB devices.  You can change this by adding your user to the 'vboxusers' group.  Please see the user manual for a more detailed explanation}, preserve=true aResultDetail=0
00:00:20.405445 nspr-8   WARNING [COM]: aRC=NS_ERROR_FAILURE (0x80004005) aIID={e54f6256-97a7-4947-8a78-10c013ddf4b8} aComponent={HostWrap} aText={VirtualBox is not currently allowed to access USB devices.  You can change this by adding your user to the 'vboxusers' group.  Please see the user manual for a more detailed explanation}, preserve=true aResultDetail=0
00:00:20.405914 nspr-3   ERROR [COM]: aRC=VBOX_E_OBJECT_NOT_FOUND (0x80bb0001) aIID={70401eef-c8e9-466b-9660-45cb3e9979e4} aComponent={ExtPackManagerWrap} aText={No extension pack by the name 'Oracle VM VirtualBox Extension Pack' was found}, preserve=false aResultDetail=0
00:00:20.667137 nspr-8   WARNING [COM]: aRC=NS_ERROR_FAILURE (0x80004005) aIID={e54f6256-97a7-4947-8a78-10c013ddf4b8} aComponent={HostWrap} aText={VirtualBox is not currently allowed to access USB devices.  You can change this by adding your user to the 'vboxusers' group.  Please see the user manual for a more detailed explanation}, preserve=true aResultDetail=0
00:00:20.668100 nspr-8   WARNING [COM]: aRC=NS_ERROR_FAILURE (0x80004005) aIID={e54f6256-97a7-4947-8a78-10c013ddf4b8} aComponent={HostWrap} aText={VirtualBox is not currently allowed to access USB devices.  You can change this by adding your user to the 'vboxusers' group.  Please see the user manual for a more detailed explanation}, preserve=true aResultDetail=0
00:00:20.689440 nspr-8   ERROR [COM]: aRC=VBOX_E_IPRT_ERROR (0x80bb0005) aIID={300763af-5d6b-46e6-aa96-273eac15538a} aComponent={SessionMachine} aText={Saved screenshot data is not available (VERR_NOT_SUPPORTED)}, preserve=false aResultDetail=-37
00:00:20.731379 nspr-5   NetIfAdpCtlOut: VBoxNetAdpCtl: Error while retrieving link speed for wlp2s0: VBoxNetAdpCtl: ioctl failed: Operation not supported
00:00:20.737205 nspr-5   WARNING [COM]: aRC=NS_ERROR_FAILURE (0x80004005) aIID={e54f6256-97a7-4947-8a78-10c013ddf4b8} aComponent={HostWrap} aText={VirtualBox is not currently allowed to access USB devices.  You can change this by adding your user to the 'vboxusers' group.  Please see the user manual for a more detailed explanation}, preserve=false aResultDetail=0
00:00:20.738383 nspr-5   WARNING [COM]: aRC=NS_ERROR_FAILURE (0x80004005) aIID={e54f6256-97a7-4947-8a78-10c013ddf4b8} aComponent={HostWrap} aText={VirtualBox is not currently allowed to access USB devices.  You can change this by adding your user to the 'vboxusers' group.  Please see the user manual for a more detailed explanation}, preserve=true aResultDetail=0
00:00:20.738684 nspr-5   WARNING [COM]: aRC=NS_ERROR_FAILURE (0x80004005) aIID={e54f6256-97a7-4947-8a78-10c013ddf4b8} aComponent={HostWrap} aText={VirtualBox is not currently allowed to access USB devices.  You can change this by adding your user to the 'vboxusers' group.  Please see the user manual for a more detailed explanation}, preserve=true aResultDetail=0
00:00:20.872747 nspr-2   WARNING [COM]: aRC=NS_ERROR_FAILURE (0x80004005) aIID={e54f6256-97a7-4947-8a78-10c013ddf4b8} aComponent={HostWrap} aText={VirtualBox is not currently allowed to access USB devices.  You can change this by adding your user to the 'vboxusers' group.  Please see the user manual for a more detailed explanation}, preserve=true aResultDetail=0
00:00:20.888671 nspr-4   ERROR [COM]: aRC=VBOX_E_INVALID_VM_STATE (0x80bb0002) aIID={300763af-5d6b-46e6-aa96-273eac15538a} aComponent={MachineWrap} aText={The machine is not mutable (state is Starting)}, preserve=false aResultDetail=0
00:00:20.890049 nspr-3   Failed to open "/dev/vboxdrvu", errno=13, rc=VERR_VM_DRIVER_NOT_ACCESSIBLE
00:00:20.914547 nspr-3   WARNING [COM]: aRC=NS_ERROR_FAILURE (0x80004005) aIID={e54f6256-97a7-4947-8a78-10c013ddf4b8} aComponent={HostWrap} aText={VirtualBox is not currently allowed to access USB devices.  You can change this by adding your user to the 'vboxusers' group.  Please see the user manual for a more detailed explanation}, preserve=true aResultDetail=0
00:00:20.915895 nspr-4   WARNING [COM]: aRC=NS_ERROR_FAILURE (0x80004005) aIID={e54f6256-97a7-4947-8a78-10c013ddf4b8} aComponent={HostWrap} aText={VirtualBox is not currently allowed to access USB devices.  You can change this by adding your user to the 'vboxusers' group.  Please see the user manual for a more detailed explanation}, preserve=true aResultDetail=0
00:00:21.203832 nspr-2   ERROR [COM]: aRC=VBOX_E_INVALID_VM_STATE (0x80bb0002) aIID={300763af-5d6b-46e6-aa96-273eac15538a} aComponent={SessionMachine} aText={The machine is not mutable or saved (state is Starting)}, preserve=false aResultDetail=0
00:00:21.207282 nspr-4   Saving settings file "/home/muhammedalessa/Downloads/Dtos/Dtos.vbox" with version "1.19-linux"
00:00:22.454291 nspr-4   Finished saving settings file "/home/muhammedalessa/Downloads/Dtos/Dtos.vbox"
00:00:22.480349 nspr-3   ERROR [COM]: aRC=VBOX_E_INVALID_VM_STATE (0x80bb0002) aIID={300763af-5d6b-46e6-aa96-273eac15538a} aComponent={MachineWrap} aText={The machine is not mutable (state is Starting)}, preserve=false aResultDetail=0
00:00:22.481924 nspr-5   Failed to open "/dev/vboxdrvu", errno=13, rc=VERR_VM_DRIVER_NOT_ACCESSIBLE
00:00:22.493469 nspr-8   Failed to open "/dev/vboxdrvu", errno=13, rc=VERR_VM_DRIVER_NOT_ACCESSIBLE
00:00:22.502917 nspr-3   WARNING [COM]: aRC=NS_ERROR_FAILURE (0x80004005) aIID={e54f6256-97a7-4947-8a78-10c013ddf4b8} aComponent={HostWrap} aText={VirtualBox is not currently allowed to access USB devices.  You can change this by adding your user to the 'vboxusers' group.  Please see the user manual for a more detailed explanation}, preserve=true aResultDetail=0
00:00:22.503547 nspr-5   WARNING [COM]: aRC=NS_ERROR_FAILURE (0x80004005) aIID={e54f6256-97a7-4947-8a78-10c013ddf4b8} aComponent={HostWrap} aText={VirtualBox is not currently allowed to access USB devices.  You can change this by adding your user to the 'vboxusers' group.  Please see the user manual for a more detailed explanation}, preserve=true aResultDetail=0
00:00:22.505457 nspr-8   WARNING [COM]: aRC=NS_ERROR_FAILURE (0x80004005) aIID={e54f6256-97a7-4947-8a78-10c013ddf4b8} aComponent={HostWrap} aText={VirtualBox is not currently allowed to access USB devices.  You can change this by adding your user to the 'vboxusers' group.  Please see the user manual for a more detailed explanation}, preserve=true aResultDetail=0
00:00:54.764395 nspr-6   Saving settings file "/home/muhammedalessa/.config/VirtualBox/VirtualBox.xml" with version "1.12-linux"
00:00:54.768407 nspr-2   Saving settings file "/home/muhammedalessa/Downloads/Dtos/Dtos.vbox" with version "1.19-linux"
00:00:55.920873 nspr-6   Finished saving settings file "/home/muhammedalessa/.config/VirtualBox/VirtualBox.xml"
00:00:55.920920 nspr-2   Finished saving settings file "/home/muhammedalessa/Downloads/Dtos/Dtos.vbox"
00:00:55.937119 nspr-6   ERROR [COM]: aRC=VBOX_E_INVALID_VM_STATE (0x80bb0002) aIID={300763af-5d6b-46e6-aa96-273eac15538a} aComponent={MachineWrap} aText={The machine is not mutable (state is Starting)}, preserve=false aResultDetail=0
00:00:55.939100 nspr-9   Failed to open "/dev/vboxdrvu", errno=13, rc=VERR_VM_DRIVER_NOT_ACCESSIBLE
00:00:55.955436 nspr-9   WARNING [COM]: aRC=NS_ERROR_FAILURE (0x80004005) aIID={e54f6256-97a7-4947-8a78-10c013ddf4b8} aComponent={HostWrap} aText={VirtualBox is not currently allowed to access USB devices.  You can change this by adding your user to the 'vboxusers' group.  Please see the user manual for a more detailed explanation}, preserve=true aResultDetail=0
00:00:55.957212 nspr-6   WARNING [COM]: aRC=NS_ERROR_FAILURE (0x80004005) aIID={e54f6256-97a7-4947-8a78-10c013ddf4b8} aComponent={HostWrap} aText={VirtualBox is not currently allowed to access USB devices.  You can change this by adding your user to the 'vboxusers' group.  Please see the user manual for a more detailed explanation}, preserve=true aResultDetail=0
00:02:37.969824 nspr-6   Saving settings file "/home/muhammedalessa/Downloads/Dtos/Dtos.vbox" with version "1.19-linux"
00:02:39.397733 nspr-6   Finished saving settings file "/home/muhammedalessa/Downloads/Dtos/Dtos.vbox"
00:02:39.397968 nspr-9   Saving settings file "/home/muhammedalessa/.config/VirtualBox/VirtualBox.xml" with version "1.12-linux"
00:02:39.520091 nspr-9   Finished saving settings file "/home/muhammedalessa/.config/VirtualBox/VirtualBox.xml"
00:02:39.539523 nspr-4   ERROR [COM]: aRC=VBOX_E_INVALID_VM_STATE (0x80bb0002) aIID={300763af-5d6b-46e6-aa96-273eac15538a} aComponent={MachineWrap} aText={The machine is not mutable (state is Starting)}, preserve=false aResultDetail=0
00:02:39.541094 nspr-9   Failed to open "/dev/vboxdrvu", errno=13, rc=VERR_VM_DRIVER_NOT_ACCESSIBLE
00:02:39.559227 nspr-9   WARNING [COM]: aRC=NS_ERROR_FAILURE (0x80004005) aIID={e54f6256-97a7-4947-8a78-10c013ddf4b8} aComponent={HostWrap} aText={VirtualBox is not currently allowed to access USB devices.  You can change this by adding your user to the 'vboxusers' group.  Please see the user manual for a more detailed explanation}, preserve=true aResultDetail=0
00:02:39.560798 nspr-4   WARNING [COM]: aRC=NS_ERROR_FAILURE (0x80004005) aIID={e54f6256-97a7-4947-8a78-10c013ddf4b8} aComponent={HostWrap} aText={VirtualBox is not currently allowed to access USB devices.  You can change this by adding your user to the 'vboxusers' group.  Please see the user manual for a more detailed explanation}, preserve=true aResultDetail=0
00:02:41.799949 nspr-5   Saving settings file "/home/muhammedalessa/.config/VirtualBox/VirtualBox.xml" with version "1.12-linux"
00:02:41.804435 nspr-7   Saving settings file "/home/muhammedalessa/Downloads/Dtos/Dtos.vbox" with version "1.19-linux"
00:02:45.457309 nspr-5   Finished saving settings file "/home/muhammedalessa/.config/VirtualBox/VirtualBox.xml"
00:02:45.510197 nspr-7   Finished saving settings file "/home/muhammedalessa/Downloads/Dtos/Dtos.vbox"
00:02:45.530467 nspr-6   ERROR [COM]: aRC=VBOX_E_INVALID_VM_STATE (0x80bb0002) aIID={300763af-5d6b-46e6-aa96-273eac15538a} aComponent={MachineWrap} aText={The machine is not mutable (state is Starting)}, preserve=false aResultDetail=0
00:02:45.532003 nspr-4   Failed to open "/dev/vboxdrvu", errno=13, rc=VERR_VM_DRIVER_NOT_ACCESSIBLE
00:02:45.549765 nspr-4   WARNING [COM]: aRC=NS_ERROR_FAILURE (0x80004005) aIID={e54f6256-97a7-4947-8a78-10c013ddf4b8} aComponent={HostWrap} aText={VirtualBox is not currently allowed to access USB devices.  You can change this by adding your user to the 'vboxusers' group.  Please see the user manual for a more detailed explanation}, preserve=true aResultDetail=0
00:02:45.551582 nspr-6   WARNING [COM]: aRC=NS_ERROR_FAILURE (0x80004005) aIID={e54f6256-97a7-4947-8a78-10c013ddf4b8} aComponent={HostWrap} aText={VirtualBox is not currently allowed to access USB devices.  You can change this by adding your user to the 'vboxusers' group.  Please see the user manual for a more detailed explanation}, preserve=true aResultDetail=0
00:02:45.781904 nspr-4   Saving settings file "/home/muhammedalessa/.config/VirtualBox/VirtualBox.xml" with version "1.12-linux"
00:02:45.810220 nspr-9   Saving settings file "/home/muhammedalessa/Downloads/Dtos/Dtos.vbox" with version "1.19-linux"
00:02:46.042133 nspr-4   Finished saving settings file "/home/muhammedalessa/.config/VirtualBox/VirtualBox.xml"
00:02:46.088914 nspr-9   Finished saving settings file "/home/muhammedalessa/Downloads/Dtos/Dtos.vbox"
00:02:46.110159 nspr-3   ERROR [COM]: aRC=VBOX_E_INVALID_VM_STATE (0x80bb0002) aIID={300763af-5d6b-46e6-aa96-273eac15538a} aComponent={MachineWrap} aText={The machine is not mutable (state is Starting)}, preserve=false aResultDetail=0
00:02:46.111651 nspr-5   Failed to open "/dev/vboxdrvu", errno=13, rc=VERR_VM_DRIVER_NOT_ACCESSIBLE
00:02:46.131706 nspr-5   WARNING [COM]: aRC=NS_ERROR_FAILURE (0x80004005) aIID={e54f6256-97a7-4947-8a78-10c013ddf4b8} aComponent={HostWrap} aText={VirtualBox is not currently allowed to access USB devices.  You can change this by adding your user to the 'vboxusers' group.  Please see the user manual for a more detailed explanation}, preserve=true aResultDetail=0
00:02:46.133327 nspr-3   WARNING [COM]: aRC=NS_ERROR_FAILURE (0x80004005) aIID={e54f6256-97a7-4947-8a78-10c013ddf4b8} aComponent={HostWrap} aText={VirtualBox is not currently allowed to access USB devices.  You can change this by adding your user to the 'vboxusers' group.  Please see the user manual for a more detailed explanation}, preserve=true aResultDetail=0
00:02:56.484585 nspr-3   Saving settings file "/home/muhammedalessa/Downloads/Dtos/Dtos.vbox" with version "1.19-linux"
00:02:57.211020 nspr-3   Finished saving settings file "/home/muhammedalessa/Downloads/Dtos/Dtos.vbox"
00:03:15.500656 nspr-2   Saving settings file "/home/muhammedalessa/Downloads/Dtos/Dtos.vbox" with version "1.19-linux"
00:03:16.509724 nspr-2   Finished saving settings file "/home/muhammedalessa/Downloads/Dtos/Dtos.vbox"
00:04:41.200442 nspr-2   Saving settings file "/home/muhammedalessa/Downloads/Dtos/Dtos.vbox" with version "1.19-linux"
00:04:42.082590 nspr-2   Finished saving settings file "/home/muhammedalessa/Downloads/Dtos/Dtos.vbox"
00:04:47.900555 nspr-8   Saving settings file "/home/muhammedalessa/Downloads/Dtos/Dtos.vbox" with version "1.19-linux"
00:04:48.828533 nspr-8   Finished saving settings file "/home/muhammedalessa/Downloads/Dtos/Dtos.vbox"
00:05:33.990627 nspr-9   Saving settings file "/home/muhammedalessa/Downloads/Dtos/Dtos.vbox" with version "1.19-linux"
00:05:34.726314 nspr-9   Finished saving settings file "/home/muhammedalessa/Downloads/Dtos/Dtos.vbox"
00:05:34.877243 main     Saving settings file "/home/muhammedalessa/Downloads/Dtos/Dtos.vbox" with version "1.19-linux"
00:05:35.227410 Watcher  Reaper: Pid 6590 (0x19be) exited normally: 1 (0x1)
00:05:35.227614 main     Finished saving settings file "/home/muhammedalessa/Downloads/Dtos/Dtos.vbox"
00:05:40.228530 main     VirtualBox: object deletion starts
00:05:40.228597 main     ERROR [COM]: aRC=VBOX_E_OBJECT_IN_USE (0x80bb000c) aIID={ad47ad09-787b-44ab-b343-a082a3f2dfb1} aComponent={MediumWrap} aText={Medium '/home/muhammedalessa/Downloads/Dtos/Dtos.vdi' cannot be closed because it is still attached to 1 virtual machines}, preserve=false aResultDetail=0
00:05:40.229159 main     HostDnsMonitor: shutting down ...
00:05:40.229273 main     HostDnsMonitor: shut down
00:05:40.229759 Watcher  ERROR [COM]: aRC=E_ACCESSDENIED (0x80070005) aIID={7682d5eb-f00e-44f1-8ca2-99d08b1cd607} aComponent={VirtualBoxWrap} aText={The object is not ready}, preserve=false aResultDetail=0
00:05:40.229821 main     VirtualBox: object deleted
