00:00:00.000376 main     VirtualBox XPCOM Server 7.0.12 r159484 linux.amd64 (Jan 14 2024 06:46:06) release log
00:00:00.000381 main     Log opened 2024-02-18T20:27:52.297625000Z
00:00:00.000382 main     Build Type: release
00:00:00.000389 main     OS Product: Linux
00:00:00.000390 main     OS Release: 6.6.16_1
00:00:00.000392 main     OS Version: #1 SMP PREEMPT_DYNAMIC Wed Feb  7 19:24:35 UTC 2024
00:00:00.000432 main     DMI Product Name: Aspire A315-23
00:00:00.000447 main     DMI Product Version: V1.19
00:00:00.000458 main     Firmware type: UEFI
00:00:00.000698 main     Secure Boot: Disabled
00:00:00.000764 main     Host RAM: 17924MB (17.5GB) total, 16330MB (15.9GB) available
00:00:00.000771 main     Executable: /usr/lib/virtualbox/VBoxSVC
00:00:00.000772 main     Process ID: 14906
00:00:00.000772 main     Package type: LINUX_64BITS_GENERIC (OSE)
00:00:00.003205 main     IPC socket path: /tmp/.vbox-muhammedalessa-ipc/ipcd
00:00:00.108432 nspr-2   VirtualBox: object creation starts
00:00:00.108596 nspr-2   Home directory: '/home/muhammedalessa/.config/VirtualBox'
00:00:00.108827 nspr-2   Loading settings file "/home/muhammedalessa/.config/VirtualBox/VirtualBox.xml" with version "1.12-linux"
00:00:00.120617 nspr-2   NetIfAdpCtlOut: VBoxNetAdpCtl: Error while retrieving link speed for wlp2s0: VBoxNetAdpCtl: ioctl failed: Operation not supported
00:00:00.122387 nspr-2   HostDnsMonitor: initializing
00:00:00.122635 nspr-2   NAT: resolv.conf: nameserver 192.168.0.1
00:00:00.122654 nspr-2   HostDnsMonitor: updating information
00:00:00.122667 nspr-2   HostDnsMonitor: old information
00:00:00.122671 nspr-2     no server entries
00:00:00.122674 nspr-2     no domain set
00:00:00.122676 nspr-2     no search string entries
00:00:00.122679 nspr-2   HostDnsMonitor: new information
00:00:00.122682 nspr-2     server 1: 192.168.0.1
00:00:00.122686 nspr-2     domain: TL-WA854RE
00:00:00.122689 nspr-2     no search string entries
00:00:00.123376 nspr-2   HostPowerServiceLinux: DBus connection Error (Failed to connect to socket /run/dbus/system_bus_socket: No such file or directory)
00:00:00.123433 nspr-2   Failed to open "/dev/vboxdrvu", errno=2, rc=VERR_VM_DRIVER_NOT_INSTALLED
00:00:00.123727 nspr-2   VD: VDInit finished with VINF_SUCCESS
00:00:00.123833 nspr-2   ERROR [COM]: aRC=NS_ERROR_FAILURE (0x80004005) aIID={aac6c7cb-a371-4c58-ab51-0616896b2f2c} aComponent={SystemPropertiesWrap} aText={Cannot determine default Guest Additions ISO location. Most likely they are not available}, preserve=false aResultDetail=0
00:00:00.125333 nspr-2   VirtualBox: object created
00:00:00.906118 nspr-3   WARNING [COM]: aRC=NS_ERROR_FAILURE (0x80004005) aIID={e54f6256-97a7-4947-8a78-10c013ddf4b8} aComponent={HostWrap} aText={Could not load the Host USB Proxy service: VERR_NOT_FOUND}, preserve=false aResultDetail=0
00:00:01.254295 nspr-4   Saving settings file "/home/muhammedalessa/.config/VirtualBox/VirtualBox.xml" with version "1.12-linux"
00:00:01.416360 nspr-4   Finished saving settings file "/home/muhammedalessa/.config/VirtualBox/VirtualBox.xml"
00:00:12.621622 nspr-4   Saving settings file "/home/muhammedalessa/.config/VirtualBox/VirtualBox.xml" with version "1.12-linux"
00:00:12.767700 nspr-4   Finished saving settings file "/home/muhammedalessa/.config/VirtualBox/VirtualBox.xml"
00:00:13.653856 nspr-4   Saving settings file "/home/muhammedalessa/.config/VirtualBox/VirtualBox.xml" with version "1.12-linux"
00:00:13.809969 nspr-4   Finished saving settings file "/home/muhammedalessa/.config/VirtualBox/VirtualBox.xml"
00:00:19.318954 nspr-2   ERROR [COM]: aRC=NS_ERROR_FAILURE (0x80004005) aIID={aac6c7cb-a371-4c58-ab51-0616896b2f2c} aComponent={SystemPropertiesWrap} aText={Cannot determine default Guest Additions ISO location. Most likely they are not available}, preserve=false aResultDetail=0
00:00:43.520654 nspr-2   Unattended: RTVfsQueryPathInfo(, '\OS2IMAGE/DISK_0/OS2LDR' (from OS2SE20.SRC),) -> VERR_PATH_NOT_FOUND, fMode=0x0
00:00:43.553795 nspr-2   Saving settings file "/home/muhammedalessa/.config/VirtualBox/VirtualBox.xml" with version "1.12-linux"
00:00:43.628436 nspr-2   Finished saving settings file "/home/muhammedalessa/.config/VirtualBox/VirtualBox.xml"
00:00:43.631379 nspr-3   Saving settings file "/home/muhammedalessa/.config/VirtualBox/VirtualBox.xml" with version "1.12-linux"
00:00:43.697380 nspr-3   Finished saving settings file "/home/muhammedalessa/.config/VirtualBox/VirtualBox.xml"
00:02:16.137242 createBase Saving settings file "/home/muhammedalessa/.config/VirtualBox/VirtualBox.xml" with version "1.12-linux"
00:02:17.747073 createBase Finished saving settings file "/home/muhammedalessa/.config/VirtualBox/VirtualBox.xml"
00:02:17.753485 nspr-4   WARNING [COM]: aRC=NS_ERROR_FAILURE (0x80004005) aIID={e54f6256-97a7-4947-8a78-10c013ddf4b8} aComponent={HostWrap} aText={Could not load the Host USB Proxy service: VERR_NOT_FOUND}, preserve=true aResultDetail=0
00:02:17.754785 nspr-4   Saving settings file "/home/muhammedalessa/Downloads/Dtos/Dtos.vbox" with version "1.19-linux"
00:02:17.827020 nspr-4   Finished saving settings file "/home/muhammedalessa/Downloads/Dtos/Dtos.vbox"
00:02:17.827177 nspr-4   Saving settings file "/home/muhammedalessa/.config/VirtualBox/VirtualBox.xml" with version "1.12-linux"
00:02:17.896550 nspr-4   Finished saving settings file "/home/muhammedalessa/.config/VirtualBox/VirtualBox.xml"
00:02:17.899167 nspr-3   Saving settings file "/home/muhammedalessa/.config/VirtualBox/VirtualBox.xml" with version "1.12-linux"
00:02:17.965509 nspr-3   Finished saving settings file "/home/muhammedalessa/.config/VirtualBox/VirtualBox.xml"
00:02:17.967182 nspr-4   Saving settings file "/home/muhammedalessa/.config/VirtualBox/VirtualBox.xml" with version "1.12-linux"
00:02:18.056648 nspr-4   Finished saving settings file "/home/muhammedalessa/.config/VirtualBox/VirtualBox.xml"
00:02:18.057705 nspr-5   Saving settings file "/home/muhammedalessa/Downloads/Dtos/Dtos.vbox" with version "1.19-linux"
00:02:18.125511 nspr-5   Finished saving settings file "/home/muhammedalessa/Downloads/Dtos/Dtos.vbox"
00:02:18.155880 nspr-3   Saving settings file "/home/muhammedalessa/.config/VirtualBox/VirtualBox.xml" with version "1.12-linux"
00:02:18.227568 nspr-3   Finished saving settings file "/home/muhammedalessa/.config/VirtualBox/VirtualBox.xml"
00:02:18.600502 nspr-2   WARNING [COM]: aRC=NS_ERROR_FAILURE (0x80004005) aIID={e54f6256-97a7-4947-8a78-10c013ddf4b8} aComponent={HostWrap} aText={Could not load the Host USB Proxy service: VERR_NOT_FOUND}, preserve=true aResultDetail=0
00:02:18.633847 nspr-5   ERROR [COM]: aRC=VBOX_E_INVALID_VM_STATE (0x80bb0002) aIID={300763af-5d6b-46e6-aa96-273eac15538a} aComponent={MachineWrap} aText={The machine is not mutable (state is PoweredOff)}, preserve=false aResultDetail=0
00:02:18.635325 nspr-2   Failed to open "/dev/vboxdrvu", errno=2, rc=VERR_VM_DRIVER_NOT_INSTALLED
00:02:18.827640 nspr-5   WARNING [COM]: aRC=NS_ERROR_FAILURE (0x80004005) aIID={e54f6256-97a7-4947-8a78-10c013ddf4b8} aComponent={HostWrap} aText={Could not load the Host USB Proxy service: VERR_NOT_FOUND}, preserve=true aResultDetail=0
00:02:18.829421 nspr-5   WARNING [COM]: aRC=NS_ERROR_FAILURE (0x80004005) aIID={e54f6256-97a7-4947-8a78-10c013ddf4b8} aComponent={HostWrap} aText={Could not load the Host USB Proxy service: VERR_NOT_FOUND}, preserve=true aResultDetail=0
00:02:25.398508 nspr-2   Launched VM: 3959434496 pid: 15887 (0x3e0f) frontend: GUI/Qt name: Dtos
00:02:25.434066 nspr-2   ERROR [COM]: aRC=VBOX_E_INVALID_VM_STATE (0x80bb0002) aIID={300763af-5d6b-46e6-aa96-273eac15538a} aComponent={MachineWrap} aText={The machine is not mutable (state is PoweredOff)}, preserve=false aResultDetail=0
00:02:25.435844 nspr-2   Failed to open "/dev/vboxdrvu", errno=2, rc=VERR_VM_DRIVER_NOT_INSTALLED
00:02:25.472096 nspr-2   WARNING [COM]: aRC=NS_ERROR_FAILURE (0x80004005) aIID={e54f6256-97a7-4947-8a78-10c013ddf4b8} aComponent={HostWrap} aText={Could not load the Host USB Proxy service: VERR_NOT_FOUND}, preserve=true aResultDetail=0
00:02:25.473646 nspr-2   WARNING [COM]: aRC=NS_ERROR_FAILURE (0x80004005) aIID={e54f6256-97a7-4947-8a78-10c013ddf4b8} aComponent={HostWrap} aText={Could not load the Host USB Proxy service: VERR_NOT_FOUND}, preserve=true aResultDetail=0
00:02:25.898905 Watcher  ERROR [COM]: aRC=NS_ERROR_FAILURE (0x80004005) aIID={300763af-5d6b-46e6-aa96-273eac15538a} aComponent={MachineWrap} aText={The virtual machine 'Dtos' has terminated unexpectedly during startup with exit code 1 (0x1)}, preserve=false aResultDetail=0
00:02:25.937212 nspr-5   ERROR [COM]: aRC=VBOX_E_INVALID_VM_STATE (0x80bb0002) aIID={300763af-5d6b-46e6-aa96-273eac15538a} aComponent={MachineWrap} aText={The machine is not mutable (state is PoweredOff)}, preserve=false aResultDetail=0
00:02:25.938666 nspr-4   Failed to open "/dev/vboxdrvu", errno=2, rc=VERR_VM_DRIVER_NOT_INSTALLED
00:02:25.969816 nspr-4   WARNING [COM]: aRC=NS_ERROR_FAILURE (0x80004005) aIID={e54f6256-97a7-4947-8a78-10c013ddf4b8} aComponent={HostWrap} aText={Could not load the Host USB Proxy service: VERR_NOT_FOUND}, preserve=true aResultDetail=0
00:02:25.971239 nspr-4   WARNING [COM]: aRC=NS_ERROR_FAILURE (0x80004005) aIID={e54f6256-97a7-4947-8a78-10c013ddf4b8} aComponent={HostWrap} aText={Could not load the Host USB Proxy service: VERR_NOT_FOUND}, preserve=true aResultDetail=0
00:02:53.954297 nspr-4   Saving settings file "/home/muhammedalessa/.config/VirtualBox/VirtualBox.xml" with version "1.12-linux"
00:02:54.114152 nspr-4   Finished saving settings file "/home/muhammedalessa/.config/VirtualBox/VirtualBox.xml"
00:02:54.439845 nspr-2   Saving settings file "/home/muhammedalessa/.config/VirtualBox/VirtualBox.xml" with version "1.12-linux"
00:02:54.625709 nspr-2   Finished saving settings file "/home/muhammedalessa/.config/VirtualBox/VirtualBox.xml"
00:02:55.053840 nspr-4   Saving settings file "/home/muhammedalessa/.config/VirtualBox/VirtualBox.xml" with version "1.12-linux"
00:02:55.203276 nspr-4   Finished saving settings file "/home/muhammedalessa/.config/VirtualBox/VirtualBox.xml"
00:04:01.167471 nspr-4   Saving settings file "/home/muhammedalessa/.config/VirtualBox/VirtualBox.xml" with version "1.12-linux"
00:04:01.323244 nspr-4   Finished saving settings file "/home/muhammedalessa/.config/VirtualBox/VirtualBox.xml"
00:04:01.640028 nspr-3   Saving settings file "/home/muhammedalessa/.config/VirtualBox/VirtualBox.xml" with version "1.12-linux"
00:04:01.845646 nspr-3   Finished saving settings file "/home/muhammedalessa/.config/VirtualBox/VirtualBox.xml"
00:05:02.320179 nspr-4   Saving settings file "/home/muhammedalessa/.config/VirtualBox/VirtualBox.xml" with version "1.12-linux"
00:05:02.504620 nspr-4   Finished saving settings file "/home/muhammedalessa/.config/VirtualBox/VirtualBox.xml"
00:05:10.025897 main     VirtualBox: object deletion starts
00:05:10.025970 main     ERROR [COM]: aRC=VBOX_E_OBJECT_IN_USE (0x80bb000c) aIID={ad47ad09-787b-44ab-b343-a082a3f2dfb1} aComponent={MediumWrap} aText={Medium '/home/muhammedalessa/Downloads/Dtos/Dtos.vdi' cannot be closed because it is still attached to 1 virtual machines}, preserve=false aResultDetail=0
00:05:10.026768 main     HostDnsMonitor: shutting down ...
00:05:10.026937 main     HostDnsMonitor: shut down
00:05:10.027450 Watcher  ERROR [COM]: aRC=E_ACCESSDENIED (0x80070005) aIID={7682d5eb-f00e-44f1-8ca2-99d08b1cd607} aComponent={VirtualBoxWrap} aText={The object is not ready}, preserve=false aResultDetail=0
00:05:10.027548 main     VirtualBox: object deleted
