00:00:00.000364 main     VirtualBox XPCOM Server 7.0.12 r159484 linux.amd64 (Jan 14 2024 06:46:06) release log
00:00:00.000369 main     Log opened 2024-02-18T20:27:40.943146000Z
00:00:00.000369 main     Build Type: release
00:00:00.000375 main     OS Product: Linux
00:00:00.000376 main     OS Release: 6.6.16_1
00:00:00.000378 main     OS Version: #1 SMP PREEMPT_DYNAMIC Wed Feb  7 19:24:35 UTC 2024
00:00:00.000413 main     DMI Product Name: Aspire A315-23
00:00:00.000432 main     DMI Product Version: V1.19
00:00:00.000443 main     Firmware type: UEFI
00:00:00.000640 main     Secure Boot: Disabled
00:00:00.000713 main     Host RAM: 17924MB (17.5GB) total, 16334MB (15.9GB) available
00:00:00.000718 main     Executable: /usr/lib/virtualbox/VBoxSVC
00:00:00.000719 main     Process ID: 14742
00:00:00.000719 main     Package type: LINUX_64BITS_GENERIC (OSE)
00:00:00.002894 main     IPC socket path: /tmp/.vbox-muhammedalessa-ipc/ipcd
00:00:00.107412 nspr-2   VirtualBox: object creation starts
00:00:00.107624 nspr-2   Home directory: '/home/muhammedalessa/.config/VirtualBox'
00:00:00.149104 nspr-2   NetIfAdpCtlOut: VBoxNetAdpCtl: Error while retrieving link speed for wlp2s0: VBoxNetAdpCtl: ioctl failed: Operation not supported
00:00:00.150899 nspr-2   HostDnsMonitor: initializing
00:00:00.151210 nspr-2   NAT: resolv.conf: nameserver 192.168.0.1
00:00:00.151237 nspr-2   HostDnsMonitor: updating information
00:00:00.151257 nspr-2   HostDnsMonitor: old information
00:00:00.151262 nspr-2     no server entries
00:00:00.151266 nspr-2     no domain set
00:00:00.151271 nspr-2     no search string entries
00:00:00.151275 nspr-2   HostDnsMonitor: new information
00:00:00.151280 nspr-2     server 1: 192.168.0.1
00:00:00.151285 nspr-2     domain: TL-WA854RE
00:00:00.151290 nspr-2     no search string entries
00:00:00.152305 nspr-2   HostPowerServiceLinux: DBus connection Error (Failed to connect to socket /run/dbus/system_bus_socket: No such file or directory)
00:00:00.152390 nspr-2   Failed to open "/dev/vboxdrvu", errno=2, rc=VERR_VM_DRIVER_NOT_INSTALLED
00:00:00.152745 nspr-2   VD: VDInit finished with VINF_SUCCESS
00:00:00.152946 nspr-2   ERROR [COM]: aRC=NS_ERROR_FAILURE (0x80004005) aIID={aac6c7cb-a371-4c58-ab51-0616896b2f2c} aComponent={SystemPropertiesWrap} aText={Cannot determine default Guest Additions ISO location. Most likely they are not available}, preserve=false aResultDetail=0
00:00:00.154725 nspr-2   VirtualBox: object created
00:00:00.903106 nspr-3   Saving settings file "/home/muhammedalessa/.config/VirtualBox/VirtualBox.xml" with version "1.12-linux"
00:00:01.071279 nspr-3   Finished saving settings file "/home/muhammedalessa/.config/VirtualBox/VirtualBox.xml"
00:00:01.154911 nspr-4   Saving settings file "/home/muhammedalessa/.config/VirtualBox/VirtualBox.xml" with version "1.12-linux"
00:00:01.239754 nspr-4   Finished saving settings file "/home/muhammedalessa/.config/VirtualBox/VirtualBox.xml"
00:00:01.341443 nspr-3   WARNING [COM]: aRC=NS_ERROR_FAILURE (0x80004005) aIID={e54f6256-97a7-4947-8a78-10c013ddf4b8} aComponent={HostWrap} aText={Could not load the Host USB Proxy service: VERR_NOT_FOUND}, preserve=false aResultDetail=0
00:00:01.620421 nspr-3   Saving settings file "/home/muhammedalessa/.config/VirtualBox/VirtualBox.xml" with version "1.12-linux"
00:00:01.717955 nspr-3   Finished saving settings file "/home/muhammedalessa/.config/VirtualBox/VirtualBox.xml"
00:00:10.736998 main     VirtualBox: object deletion starts
00:00:10.737541 main     HostDnsMonitor: shutting down ...
00:00:10.738740 main     HostDnsMonitor: shut down
00:00:10.739133 Watcher  ERROR [COM]: aRC=E_ACCESSDENIED (0x80070005) aIID={7682d5eb-f00e-44f1-8ca2-99d08b1cd607} aComponent={VirtualBoxWrap} aText={The object is not ready}, preserve=false aResultDetail=0
00:00:10.739219 main     VirtualBox: object deleted
